DClab4/fourBitCounterSync/simulation/qsim/fourBitCounterSync.msim.vcd
$comment
	File created using the following command:
		vcd file fourBitCounterSync.msim.vcd -direction
$end
$date
	Sat Jan 18 21:54:19 2014
$end
$version
	ModelSim Version 10.1d
$end
$timescale
	1ps
$end
$scope module fourBitCounterSync_vlg_vec_tst $end
$var reg 1 ! CLK $end
$var wire 1 " Q0 $end
$var wire 1 # Q1 $end
$var wire 1 $ Q2 $end
$var wire 1 % Q3 $end
$var wire 1 & sampler $end
$scope module i1 $end
$var wire 1 ' gnd $end
$var wire 1 ( vcc $end
$var wire 1 ) unknown $end
$var tri1 1 * devclrn $end
$var tri1 1 + devpor $end
$var tri1 1 , devoe $end
$var wire 1 - Q0~output_o $end
$var wire 1 . Q1~output_o $end
$var wire 1 / Q2~output_o $end
$var wire 1 0 Q3~output_o $end
$var wire 1 1 CLK~input_o $end
$var wire 1 2 D4|9~0_combout $end
$var wire 1 3 D4|9~feeder_combout $end
$var wire 1 4 D4|9~q $end
$var wire 1 5 D5|9~0_combout $end
$var wire 1 6 D5|9~feeder_combout $end
$var wire 1 7 D5|9~q $end
$var wire 1 8 D6|9~0_combout $end
$var wire 1 9 D6|9~feeder_combout $end
$var wire 1 : D6|9~q $end
$var wire 1 ; D7|9~0_combout $end
$var wire 1 < D7|9~q $end
$upscope $end
$upscope $end
$enddefinitions $end
#0
$dumpvars
0!
0"
0#
0$
0%
x&
0'
1(
x)
1*
1+
1,
0-
0.
0/
00
01
12
13
04
15
16
07
18
19
0:
1;
0<
$end
#20000
1!
11
0&
14
02
1-
1"
03
#40000
0!
01
1&
#60000
1!
11
0&
04
12
0-
0"
13
17
05
1.
1#
06
#80000
0!
01
1&
#100000
1!
11
0&
14
02
1-
1"
03
#120000
0!
01
1&
#140000
1!
11
0&
04
12
0-
0"
13
07
15
0.
0#
16
1:
08
1/
1$
09
#160000
0!
01
1&
#180000
1!
11
0&
14
02
1-
1"
03
#200000
0!
01
1&
#220000
1!
11
0&
04
12
0-
0"
13
17
05
1.
1#
06
#240000
0!
01
1&
#260000
1!
11
0&
14
02
1-
1"
03
#280000
0!
01
1&
#300000
1!
11
0&
04
12
0-
0"
13
07
15
0.
0#
16
0:
18
0/
0$
19
1<
0;
10
1%
#320000
0!
01
1&
#340000
1!
11
0&
14
02
1-
1"
03
#360000
0!
01
1&
#380000
1!
11
0&
04
12
0-
0"
13
17
05
1.
1#
06
#400000
0!
01
1&
#420000
1!
11
0&
14
02
1-
1"
03
#440000
0!
01
1&
#460000
1!
11
0&
04
12
0-
0"
13
07
15
0.
0#
16
1:
08
1/
1$
09
#480000
0!
01
1&
#500000
1!
11
0&
14
02
1-
1"
03
#520000
0!
01
1&
#540000
1!
11
0&
04
12
0-
0"
13
17
05
1.
1#
06
#560000
0!
01
1&
#580000
1!
11
0&
14
02
1-
1"
03
#600000
0!
01
1&
#620000
1!
11
0&
04
12
0-
0"
13
07
15
0.
0#
16
0:
18
0/
0$
19
0<
1;
00
0%
#640000
0!
01
1&
#660000
1!
11
0&
14
02
1-
1"
03
#680000
0!
01
1&
#700000
1!
11
0&
04
12
0-
0"
13
17
05
1.
1#
06
#720000
0!
01
1&
#740000
1!
11
0&
14
02
1-
1"
03
#760000
0!
01
1&
#780000
1!
11
0&
04
12
0-
0"
13
07
15
0.
0#
16
1:
08
1/
1$
09
#800000
0!
01
1&
#820000
1!
11
0&
14
02
1-
1"
03
#840000
0!
01
1&
#860000
1!
11
0&
04
12
0-
0"
13
17
05
1.
1#
06
#880000
0!
01
1&
#900000
1!
11
0&
14
02
1-
1"
03
#920000
0!
01
1&
#940000
1!
11
0&
04
12
0-
0"
13
07
15
0.
0#
16
0:
18
0/
0$
19
1<
0;
10
1%
#960000
0!
01
1&
#980000
1!
11
0&
14
02
1-
1"
03
