DClab4/fourBitCounterAsync/simulation/qsim/fourBitCounterAsync.msim.vcd
$comment
	File created using the following command:
		vcd file fourBitCounterAsync.msim.vcd -direction
$end
$date
	Sat Jan 18 21:19:52 2014
$end
$version
	ModelSim Version 10.1d
$end
$timescale
	1ps
$end
$scope module fourBitCounterAsync_vlg_vec_tst $end
$var reg 1 ! CP $end
$var wire 1 " Q0 $end
$var wire 1 # Q1 $end
$var wire 1 $ Q2 $end
$var wire 1 % Q3 $end
$var wire 1 & sampler $end
$scope module i1 $end
$var wire 1 ' gnd $end
$var wire 1 ( vcc $end
$var wire 1 ) unknown $end
$var tri1 1 * devclrn $end
$var tri1 1 + devpor $end
$var tri1 1 , devoe $end
$var wire 1 - Q3~output_o $end
$var wire 1 . Q0~output_o $end
$var wire 1 / Q1~output_o $end
$var wire 1 0 Q2~output_o $end
$var wire 1 1 CP~input_o $end
$var wire 1 2 CP~inputclkctrl_outclk $end
$var wire 1 3 D0|9~0_combout $end
$var wire 1 4 D0|9~q $end
$var wire 1 5 D1|9~0_combout $end
$var wire 1 6 D1|9~q $end
$var wire 1 7 D2|9~0_combout $end
$var wire 1 8 D2|9~q $end
$var wire 1 9 inst11~0_combout $end
$var wire 1 : inst11~q $end
$upscope $end
$upscope $end
$enddefinitions $end
#0
$dumpvars
0!
0"
0#
0$
0%
x&
0'
1(
x)
1*
1+
1,
0-
0.
0/
00
01
02
13
04
05
06
07
08
09
0:
$end
#20000
1!
11
12
0&
14
15
03
1.
1"
#40000
0!
01
02
1&
#60000
1!
11
12
0&
16
04
13
1/
0.
1#
0"
#80000
0!
01
02
1&
#100000
1!
11
12
0&
14
17
05
03
1.
1"
#120000
0!
01
02
1&
#140000
1!
11
12
0&
18
06
04
13
10
0/
0.
1$
0#
0"
#160000
0!
01
02
1&
#180000
1!
11
12
0&
14
15
03
1.
1"
#200000
0!
01
02
1&
#220000
1!
11
12
0&
16
04
13
1/
0.
1#
0"
#240000
0!
01
02
1&
#260000
1!
11
12
0&
14
19
07
05
03
1.
1"
#280000
0!
01
02
1&
#300000
1!
11
12
0&
1:
08
06
04
13
1-
00
0/
0.
1%
0$
0#
0"
#320000
0!
01
02
1&
#340000
1!
11
12
0&
14
15
03
1.
1"
#360000
0!
01
02
1&
#380000
1!
11
12
0&
16
04
13
1/
0.
1#
0"
#400000
0!
01
02
1&
#420000
1!
11
12
0&
14
17
05
03
1.
1"
#440000
0!
01
02
1&
#460000
1!
11
12
0&
18
06
04
13
10
0/
0.
1$
0#
0"
#480000
0!
01
02
1&
#500000
1!
11
12
0&
14
15
03
1.
1"
#520000
0!
01
02
1&
#540000
1!
11
12
0&
16
04
13
1/
0.
1#
0"
#560000
0!
01
02
1&
#580000
1!
11
12
0&
14
09
07
05
03
1.
1"
#600000
0!
01
02
1&
#620000
1!
11
12
0&
0:
08
06
04
13
0-
00
0/
0.
0%
0$
0#
0"
#640000
0!
01
02
1&
#660000
1!
11
12
0&
14
15
03
1.
1"
#680000
0!
01
02
1&
#700000
1!
11
12
0&
16
04
13
1/
0.
1#
0"
#720000
0!
01
02
1&
#740000
1!
11
12
0&
14
17
05
03
1.
1"
#760000
0!
01
02
1&
#780000
1!
11
12
0&
18
06
04
13
10
0/
0.
1$
0#
0"
#800000
0!
01
02
1&
#820000
1!
11
12
0&
14
15
03
1.
1"
#840000
0!
01
02
1&
#860000
1!
11
12
0&
16
04
13
1/
0.
1#
0"
#880000
0!
01
02
1&
#900000
1!
11
12
0&
14
19
07
05
03
1.
1"
#920000
0!
01
02
1&
#940000
1!
11
12
0&
1:
08
06
04
13
1-
00
0/
0.
1%
0$
0#
0"
#960000
0!
01
02
1&
#980000
1!
11
12
0&
14
15
03
1.
1"
